Wood-Sword$500
Stone-Sword$1000
Iron-Sword$3000
Diamond-Sword$7000
Epic-Sword$10000
Dragon-Sword$30000
Ancient-HolySword$50000
Infinite-Sword$100000
#
Leather-Armour$1000
Plate-Armour$5000
Epic-Armour$20000
Dragon-Armour$50000
Legendary-Armour$100000
#
Bee$1000
Rabbit$5000
Frog$7000
Dog$10000
Cat$10000
Fox$20000
Wolf$30000
Bear$40000
Tiger$50000
Lion$80000
Shark$120000
Dragon$150000
Demon$200000
Demon-Lord$1000000
#
Angel-Wings$100000
Dragon-Wings$500000
Evil-Wings$800000
Flame-Wings$1000000
Demon-Wings$2000000
#
Apple$500
Banana$1000
Fish$5000
Chicken$10000
Meat$20000
Steak$50000
Max-Level$1000000000
#
Small-Home$50000
Big-Home$100000
Penthouse$500000
Mansion$1000000
Hotel$5000000
#
ChangeName$1000000
GuildTicket$10000